Movie Madness
…
length(unique(movies_new$title))

## [1] 6952

# Returns the unique rows in movies dataset
movies_new %>% distinct()

## # A tibble: 7,172 x 37
##        id title  original_title overview release_date original_langua~ genre_ids
##     <dbl> <chr>  <chr>          <chr>    <date>       <chr>            <chr>    
##  1  19404 Dilwa~ <U+0926><U+093F><U+0932><U+0935><U+093E><U+0932><U+0947> <U+0926><U+0941><U+0932><U+094D><U+0939><U+0928><U+093F><U+092F>~ Raj is ~ 1995-10-20   hi               35, 18, ~
##  2 283566 Evang~ <U+30B7><U+30F3><U+30A8><U+30F4><U+30A1>~  In the ~ 2021-03-08   ja               16, 28, ~
##  3    278 The S~ The Shawshank~ Framed ~ 1994-09-23   en               18, 80   
##  4    238 The G~ The Godfather  Spannin~ 1972-03-14   en               18, 80   
##  5    424 Schin~ Schindler's L~ The tru~ 1993-11-30   en               18, 36, ~
##  6    240 The G~ The Godfather~ In the ~ 1974-12-20   en               18, 80   
##  7 526702 Black~ Black Beauty   Born fr~ 2020-11-27   en               18       
##  8 255709 Hope   <U+C18C><U+C6D0>           After 8~ 2013-10-02   ko               18       
##  9 496243 Paras~ <U+AE30><U+C0DD><U+CDA9>         All une~ 2019-05-30   ko               35, 53, ~
## 10    497 The G~ The Green Mile A super~ 1999-12-10   en               14, 18, ~
## # ... with 7,162 more rows, and 30 more variables: adult <lgl>,
## #   poster_path <chr>, backdrop_path <chr>, popularity <dbl>, vote_count <dbl>,
## #   vote_average <dbl>, video <lgl>, tagline <chr>, runtime <dbl>,
## #   budget <dbl>, revenue <dbl>, Action <lgl>, Adventure <lgl>,
## #   Animation <lgl>, Comedy <lgl>, Crime <lgl>, Documentary <lgl>, Drama <lgl>,
## #   Family <lgl>, Fantasy <lgl>, History <lgl>, Horror <lgl>, Music <lgl>,
## #   Mystery <lgl>, Romance <lgl>, Science Fiction <lgl>, TV Movie <lgl>,
## #   Thriller <lgl>, War <lgl>, Western <lgl>

# Remove duplicate rows based on multiple variables 
movies_new %>% distinct(title, release_date, .keep_all = TRUE)

## # A tibble: 7,172 x 37
##        id title  original_title overview release_date original_langua~ genre_ids
##     <dbl> <chr>  <chr>          <chr>    <date>       <chr>            <chr>    
##  1  19404 Dilwa~ <U+0926><U+093F><U+0932><U+0935><U+093E><U+0932><U+0947> <U+0926><U+0941><U+0932><U+094D><U+0939><U+0928><U+093F><U+092F>~ Raj is ~ 1995-10-20   hi               35, 18, ~
##  2 283566 Evang~ <U+30B7><U+30F3><U+30A8><U+30F4><U+30A1>~  In the ~ 2021-03-08   ja               16, 28, ~
##  3    278 The S~ The Shawshank~ Framed ~ 1994-09-23   en               18, 80   
##  4    238 The G~ The Godfather  Spannin~ 1972-03-14   en               18, 80   
##  5    424 Schin~ Schindler's L~ The tru~ 1993-11-30   en               18, 36, ~
##  6    240 The G~ The Godfather~ In the ~ 1974-12-20   en               18, 80   
##  7 526702 Black~ Black Beauty   Born fr~ 2020-11-27   en               18       
##  8 255709 Hope   <U+C18C><U+C6D0>           After 8~ 2013-10-02   ko               18       
##  9 496243 Paras~ <U+AE30><U+C0DD><U+CDA9>         All une~ 2019-05-30   ko               35, 53, ~
## 10    497 The G~ The Green Mile A super~ 1999-12-10   en               14, 18, ~
## # ... with 7,162 more rows, and 30 more variables: adult <lgl>,
## #   poster_path <chr>, backdrop_path <chr>, popularity <dbl>, vote_count <dbl>,
## #   vote_average <dbl>, video <lgl>, tagline <chr>, runtime <dbl>,
## #   budget <dbl>, revenue <dbl>, Action <lgl>, Adventure <lgl>,
## #   Animation <lgl>, Comedy <lgl>, Crime <lgl>, Documentary <lgl>, Drama <lgl>,
## #   Family <lgl>, Fantasy <lgl>, History <lgl>, Horror <lgl>, Music <lgl>,
## #   Mystery <lgl>, Romance <lgl>, Science Fiction <lgl>, TV Movie <lgl>,
## #   Thriller <lgl>, War <lgl>, Western <lgl>
…
